{
  "resource": {
    "aws_cloudwatch_metric_alarm": {
      "cpu_credit_balance_too_low": {
        "alarm_name": "${replace(var.domain_name,\".\",\"-\")}-cpu-credit-balance-too-low",
        "comparison_operator": "LessThanThreshold",
        "evaluation_periods": "1",
        "metric_name": "CPUCreditBalance",
        "namespace": "AWS/RDS",
        "period": "600",
        "statistic": "Average",
        "threshold": "${local.thresholds[\"CPUCreditBalanceThreshold\"]}",
        "alarm_description": "Average database CPU credit balance over last 10 minutes too low, expect a significant performance drop soon",
        "alarm_actions": ["${aws_sns_topic.default.arn}"],
        "ok_actions": ["${aws_sns_topic.default.arn}"],

        "dimensions": {
          "DBInstanceIdentifier": "${var.db_instance_id}"
        }
      }
    }
  }
}
